systems/zedboard/.Xil/Vivado-8558-altivec/hw_ila_data_1/zip_work/waveform.vcd
$date
        2017-Jul-21 16:22:18
$end
$version
        Vivado v2017.1 (64-bit)
$end
$timescale
        1ps
$end
$scope module dut $end
$var reg 30 " design_1_i/Orca_0_data_ARADDR [31:2] $end
$var reg 30 @ design_1_i/Orca_0_data_AWADDR [31:2] $end
$var reg 4 ^ u_ila_0_Orca_0_data_BID [3:0] $end
$var reg 2 b design_1_i/Orca_0_data_BRESP [1:0] $end
$var reg 32 d design_1_i/Orca_0_data_RDATA [31:0] $end
$var reg 4 &" u_ila_0_Orca_0_data_RID [3:0] $end
$var reg 2 *" design_1_i/Orca_0_data_RRESP [1:0] $end
$var reg 8 ," design_1_i/Orca_0_data_WDATA_1 [7:0] $end
$var reg 16 4" u_ila_0_Orca_0_data_WDATA [23:8] $end
$var reg 8 D" design_1_i/Orca_0_data_WDATA [31:24] $end
$var reg 4 L" u_ila_0_Orca_0_data_WSTRB [3:0] $end
$var reg 32 P" u_ila_0_Orca_0_instr_ARADDR [31:0] $end
$var reg 2 p" u_ila_0_Orca_0_instr_RRESP [1:0] $end
$var reg 5 r" u_ila_0_Orca_0_instr_RID [4:0] $end
$var reg 32 w" u_ila_0_Orca_0_instr_RDATA [31:0] $end
$var reg 1 9# design_1_i/Orca_0/U0/core/X/syscall/global_interrupts $end
$var reg 1 :# design_1_i/Orca_0/U0/core/X/syscall/D $end
$var reg 1 ;# design_1_i/Orca_0/U0/core/X/e_interrupt_pending $end
$var reg 1 <# design_1_i/Orca_0/U0/core/X/syscall/e_subseq_valid $end
$var reg 1 =# design_1_i/Orca_0/U0/core/X/interrupt_processor_reg $end
$var reg 1 ># design_1_i/Orca_0/U0/core/X/syscall/is_br_op_reg $end
$var reg 1 ?# design_1_i/Orca_0/U0/core/X/syscall/is_jalr_op_reg_0 $end
$var reg 1 @# \design_1_i/Orca_0/U0/core/X/syscall/mcause[31]_i_1_n_0 $end
$var reg 1 A# design_1_i/Orca_0/U0/core/X/mcause_reg $end
$var reg 1 B# design_1_i/Orca_0/U0/core/X/syscall/mcause_reg_n_0_ $end
$var reg 1 C# design_1_i/Orca_0/U0/core/X/syscall/meimask_reg_n_0_ $end
$var reg 1 D# \design_1_i/Orca_0/U0/core/X/syscall/mstatus_reg[3]_0 $end
$var reg 1 E# design_1_i/Orca_0/U0/core/X/mstatus_reg $end
$var reg 1 F# u_ila_0_Orca_0_data_ARREADY $end
$var reg 1 G# design_1_i/Orca_0_data_ARVALID $end
$var reg 1 H# design_1_i/Orca_0_data_AWREADY $end
$var reg 1 I# design_1_i/Orca_0_data_AWVALID $end
$var reg 1 J# u_ila_0_Orca_0_data_BREADY $end
$var reg 1 K# design_1_i/Orca_0_data_BVALID $end
$var reg 1 L# u_ila_0_Orca_0_data_RLAST $end
$var reg 1 M# u_ila_0_Orca_0_data_RVALID $end
$var reg 1 N# design_1_i/Orca_0_data_WREADY $end
$var reg 1 O# u_ila_0_Orca_0_instr_ARREADY $end
$var reg 1 P# u_ila_0_Orca_0_instr_ARVALID $end
$var reg 1 Q# u_ila_0_Orca_0_instr_RLAST $end
$var reg 1 R# u_ila_0_Orca_0_instr_RVALID $end
$var reg 1 S# design_1_i/Orca_0/U0/core/X/p_4_in5_in $end
$var reg 1 T# design_1_i/Orca_0/U0/core/X/syscall/two_cycle.instr_out_reg_1 $end
$var reg 1 U# design_1_i/Orca_0/U0/core/X/syscall/two_cycle.instr_out_reg $end
$var reg 1 V# design_1_i/Orca_0/U0/core/X/syscall/valid_output $end
$var reg 1 W# _TRIGGER $end
$var reg 1 X# _WINDOW $end
$var reg 1 Y# _GAP $end
$upscope $end
$enddefinitions $end
#0
$dumpvars
b0 "
b0 @
b0 ^
b0 b
b0 d
b0 &"
b0 *"
b0 ,"
b0 4"
b0 D"
b1 L"
b1000000100 P"
b0 p"
b0 r"
b0 w"
19#
0:#
0;#
0<#
0=#
1>#
0?#
0@#
1A#
0B#
1C#
0D#
0E#
0F#
0G#
0H#
0I#
0J#
0K#
0L#
0M#
0N#
0O#
0P#
0Q#
0R#
0S#
0T#
0U#
0V#
1W#
1X#
0Y#
$end
#1
b1000000000 P"
0>#
1P#
1Q#
1R#
#2
0Q#
0R#
#3
1O#
#4
0O#
0P#
#5
b1000000100 P"
1P#
1Q#
1R#
#6
1<#
0Q#
0R#
#7
0<#
1?#
1O#
1T#
1V#
#8
1>#
0?#
0O#
0P#
0T#
0V#
#9
b1000000000 P"
0>#
1P#
1Q#
1R#
#10
0Q#
0R#
#11
1O#
#12
0O#
0P#
#13
b1000000100 P"
1P#
1Q#
1R#
#14
1<#
0Q#
0R#
#15
0<#
1?#
1O#
1T#
1V#
#16
1>#
0?#
0O#
0P#
0T#
0V#
#17
b1000000000 P"
0>#
1P#
1Q#
1R#
#18
0Q#
0R#
#19
1O#
#20
0O#
0P#
#21
b1000000100 P"
1P#
1Q#
1R#
#22
1<#
0Q#
0R#
#23
0<#
1?#
1O#
1T#
1V#
#24
1>#
0?#
0O#
0P#
0T#
0V#
#25
b1000000000 P"
0>#
1P#
1Q#
1R#
#26
0Q#
0R#
#27
1O#
#28
0O#
0P#
#29
b1000000100 P"
1P#
1Q#
1R#
#30
1<#
0Q#
0R#
#31
0<#
1?#
1O#
1T#
1V#
#32
09#
1>#
0?#
0O#
0P#
0T#
0V#
#33
b1000000000 P"
0>#
1P#
1Q#
1R#
#34
0Q#
0R#
#35
1O#
#36
0O#
0P#
#37
b1000000100 P"
1P#
1Q#
1R#
#38
1<#
0Q#
0R#
#39
0<#
1?#
1O#
1T#
1V#
#40
1>#
0?#
0O#
0P#
0T#
0V#
#41
b1000000000 P"
0>#
1P#
1Q#
1R#
#42
0Q#
0R#
#43
1O#
#44
0O#
0P#
#45
b1000000100 P"
1P#
1Q#
1R#
#46
1<#
0Q#
0R#
#47
0<#
1?#
1O#
1T#
1V#
#48
1>#
0?#
0O#
0P#
0T#
0V#
#49
b1000000000 P"
0>#
1P#
1Q#
1R#
#50
0Q#
0R#
#51
1O#
#52
0O#
0P#
#53
b1000000100 P"
1P#
1Q#
1R#
#54
1<#
0Q#
0R#
#55
0<#
1?#
1O#
1T#
1V#
#56
1>#
0?#
0O#
0P#
0T#
0V#
#57
b1000000000 P"
0>#
1P#
1Q#
1R#
#58
0Q#
0R#
#59
1O#
#60
0O#
0P#
#61
b1000000100 P"
1P#
1Q#
1R#
#62
1<#
0Q#
0R#
#63
0<#
1?#
1O#
1T#
1V#
#64
1>#
0?#
0O#
0P#
0T#
0V#
#65
b1000000000 P"
0>#
1P#
1Q#
1R#
#66
0Q#
0R#
#67
1O#
#68
0O#
0P#
#69
b1000000100 P"
1P#
1Q#
1R#
#70
1<#
0Q#
0R#
#71
0<#
1?#
1O#
1T#
1V#
#72
1>#
0?#
0O#
0P#
0T#
0V#
#73
b1000000000 P"
0>#
1P#
1Q#
1R#
#74
0Q#
0R#
#75
1O#
#76
0O#
0P#
#77
b1000000100 P"
1P#
1Q#
1R#
#78
1<#
0Q#
0R#
#79
0<#
1?#
1O#
1T#
1V#
#80
1>#
0?#
0O#
0P#
0T#
0V#
#81
b1000000000 P"
0>#
1P#
1Q#
1R#
#82
0Q#
0R#
#83
1O#
#84
0O#
0P#
#85
b1000000100 P"
1P#
1Q#
1R#
#86
1<#
0Q#
0R#
#87
0<#
1?#
1O#
1T#
1V#
#88
1>#
0?#
0O#
0P#
0T#
0V#
#89
b1000000000 P"
0>#
1P#
1Q#
1R#
#90
0Q#
0R#
#91
1O#
#92
0O#
0P#
#93
b1000000100 P"
1P#
1Q#
1R#
#94
1<#
0Q#
0R#
#95
0<#
1?#
1O#
1T#
1V#
#96
1>#
0?#
0O#
0P#
0T#
0V#
#97
b1000000000 P"
0>#
1P#
1Q#
1R#
#98
0Q#
0R#
#99
1O#
#100
0O#
0P#
#101
b1000000100 P"
1P#
1Q#
1R#
#102
1<#
0Q#
0R#
#103
0<#
1?#
1O#
1T#
1V#
#104
1>#
0?#
0O#
0P#
0T#
0V#
#105
b1000000000 P"
0>#
1P#
1Q#
1R#
#106
0Q#
0R#
#107
1O#
#108
0O#
0P#
#109
b1000000100 P"
1P#
1Q#
1R#
#110
1<#
0Q#
0R#
#111
0<#
1?#
1O#
1T#
1V#
#112
1>#
0?#
0O#
0P#
0T#
0V#
#113
b1000000000 P"
0>#
1P#
1Q#
1R#
#114
0Q#
0R#
#115
1O#
#116
0O#
0P#
#117
b1000000100 P"
1P#
1Q#
1R#
#118
1<#
0Q#
0R#
#119
0<#
1?#
1O#
1T#
1V#
#120
1>#
0?#
0O#
0P#
0T#
0V#
#121
b1000000000 P"
0>#
1P#
1Q#
1R#
#122
0Q#
0R#
#123
1O#
#124
0O#
0P#
#125
b1000000100 P"
1P#
1Q#
1R#
#126
1<#
0Q#
0R#
#127
0<#
1?#
1O#
1T#
1V#
#128
1>#
0?#
0O#
0P#
0T#
0V#
#129
b1000000000 P"
0>#
1P#
1Q#
1R#
#130
0Q#
0R#
#131
1O#
#132
0O#
0P#
#133
b1000000100 P"
1P#
1Q#
1R#
#134
1<#
0Q#
0R#
#135
0<#
1?#
1O#
1T#
1V#
#136
1>#
0?#
0O#
0P#
0T#
0V#
#137
b1000000000 P"
0>#
1P#
1Q#
1R#
#138
0Q#
0R#
#139
1O#
#140
0O#
0P#
#141
b1000000100 P"
1P#
1Q#
1R#
#142
1<#
0Q#
0R#
#143
0<#
1?#
1O#
1T#
1V#
#144
1>#
0?#
0O#
0P#
0T#
0V#
#145
b1000000000 P"
0>#
1P#
1Q#
1R#
#146
0Q#
0R#
#147
1O#
#148
0O#
0P#
#149
b1000000100 P"
1P#
1Q#
1R#
#150
1<#
0Q#
0R#
#151
0<#
1?#
1O#
1T#
1V#
#152
1>#
0?#
0O#
0P#
0T#
0V#
#153
b1000000000 P"
0>#
1P#
1Q#
1R#
#154
0Q#
0R#
#155
1O#
#156
0O#
0P#
#157
b1000000100 P"
1P#
1Q#
1R#
#158
1<#
0Q#
0R#
#159
0<#
1?#
1O#
1T#
1V#
#160
1>#
0?#
0O#
0P#
0T#
0V#
#161
b1000000000 P"
0>#
1P#
1Q#
1R#
#162
0Q#
0R#
#163
1O#
#164
0O#
0P#
#165
b1000000100 P"
1P#
1Q#
1R#
#166
1<#
0Q#
0R#
#167
0<#
1?#
1O#
1T#
1V#
#168
1>#
0?#
0O#
0P#
0T#
0V#
#169
b1000000000 P"
0>#
1P#
1Q#
1R#
#170
0Q#
0R#
#171
1O#
#172
0O#
0P#
#173
b1000000100 P"
1P#
1Q#
1R#
#174
1<#
0Q#
0R#
#175
0<#
1?#
1O#
1T#
1V#
#176
1>#
0?#
0O#
0P#
0T#
0V#
#177
b1000000000 P"
0>#
1P#
1Q#
1R#
#178
0Q#
0R#
#179
1O#
#180
0O#
0P#
#181
b1000000100 P"
1P#
1Q#
1R#
#182
1<#
0Q#
0R#
#183
0<#
1?#
1O#
1T#
1V#
#184
1>#
0?#
0O#
0P#
0T#
0V#
#185
b1000000000 P"
0>#
1P#
1Q#
1R#
#186
0Q#
0R#
#187
1O#
#188
0O#
0P#
#189
b1000000100 P"
1P#
1Q#
1R#
#190
1<#
0Q#
0R#
#191
0<#
1?#
1O#
1T#
1V#
#192
1>#
0?#
0O#
0P#
0T#
0V#
#193
b1000000000 P"
0>#
1P#
1Q#
1R#
#194
0Q#
0R#
#195
1O#
#196
0O#
0P#
#197
b1000000100 P"
1P#
1Q#
1R#
#198
1<#
0Q#
0R#
#199
0<#
1?#
1O#
1T#
1V#
#200
1>#
0?#
0O#
0P#
0T#
0V#
#201
b1000000000 P"
0>#
1P#
1Q#
1R#
#202
0Q#
0R#
#203
1O#
#204
0O#
0P#
#205
b1000000100 P"
1P#
1Q#
1R#
#206
1<#
0Q#
0R#
#207
0<#
1?#
1O#
1T#
1V#
#208
1>#
0?#
0O#
0P#
0T#
0V#
#209
b1000000000 P"
0>#
1P#
1Q#
1R#
#210
0Q#
0R#
#211
1O#
#212
0O#
0P#
#213
b1000000100 P"
1P#
1Q#
1R#
#214
1<#
0Q#
0R#
#215
0<#
1?#
1O#
1T#
1V#
#216
1>#
0?#
0O#
0P#
0T#
0V#
#217
b1000000000 P"
0>#
1P#
1Q#
1R#
#218
0Q#
0R#
#219
1O#
#220
0O#
0P#
#221
b1000000100 P"
1P#
1Q#
1R#
#222
1<#
0Q#
0R#
#223
0<#
1?#
1O#
1T#
1V#
#224
1>#
0?#
0O#
0P#
0T#
0V#
#225
b1000000000 P"
0>#
1P#
1Q#
1R#
#226
0Q#
0R#
#227
1O#
#228
0O#
0P#
#229
b1000000100 P"
1P#
1Q#
1R#
#230
1<#
0Q#
0R#
#231
0<#
1?#
1O#
1T#
1V#
#232
1>#
0?#
0O#
0P#
0T#
0V#
#233
b1000000000 P"
0>#
1P#
1Q#
1R#
#234
0Q#
0R#
#235
1O#
#236
0O#
0P#
#237
b1000000100 P"
1P#
1Q#
1R#
#238
1<#
0Q#
0R#
#239
0<#
1?#
1O#
1T#
1V#
#240
1>#
0?#
0O#
0P#
0T#
0V#
#241
b1000000000 P"
0>#
1P#
1Q#
1R#
#242
0Q#
0R#
#243
1O#
#244
0O#
0P#
#245
b1000000100 P"
1P#
1Q#
1R#
#246
1<#
0Q#
0R#
#247
0<#
1?#
1O#
1T#
1V#
#248
1>#
0?#
0O#
0P#
0T#
0V#
#249
b1000000000 P"
0>#
1P#
1Q#
1R#
#250
0Q#
0R#
#251
1O#
#252
0O#
0P#
#253
b1000000100 P"
1P#
1Q#
1R#
#254
1<#
0Q#
0R#
#255
0<#
1?#
1O#
1T#
1V#
#256
1>#
0?#
0O#
0P#
0T#
0V#
#257
b1000000000 P"
0>#
1P#
1Q#
1R#
#258
0Q#
0R#
#259
1O#
#260
0O#
0P#
#261
b1000000100 P"
1P#
1Q#
1R#
#262
1<#
0Q#
0R#
#263
0<#
1?#
1O#
1T#
1V#
#264
1>#
0?#
0O#
0P#
0T#
0V#
#265
b1000000000 P"
0>#
1P#
1Q#
1R#
#266
0Q#
0R#
#267
1O#
#268
0O#
0P#
#269
b1000000100 P"
1P#
1Q#
1R#
#270
1<#
0Q#
0R#
#271
0<#
1?#
1O#
1T#
1V#
#272
1>#
0?#
0O#
0P#
0T#
0V#
#273
b1000000000 P"
0>#
1P#
1Q#
1R#
#274
0Q#
0R#
#275
1O#
#276
0O#
0P#
#277
b1000000100 P"
1P#
1Q#
1R#
#278
1<#
0Q#
0R#
#279
0<#
1?#
1O#
1T#
1V#
#280
1>#
0?#
0O#
0P#
0T#
0V#
#281
b1000000000 P"
0>#
1P#
1Q#
1R#
#282
0Q#
0R#
#283
1O#
#284
0O#
0P#
#285
b1000000100 P"
1P#
1Q#
1R#
#286
1<#
0Q#
0R#
#287
0<#
1?#
1O#
1T#
1V#
#288
1>#
0?#
0O#
0P#
0T#
0V#
#289
b1000000000 P"
0>#
1P#
1Q#
1R#
#290
0Q#
0R#
#291
1O#
#292
0O#
0P#
#293
b1000000100 P"
1P#
1Q#
1R#
#294
1<#
0Q#
0R#
#295
0<#
1?#
1O#
1T#
1V#
#296
1>#
0?#
0O#
0P#
0T#
0V#
#297
b1000000000 P"
0>#
1P#
1Q#
1R#
#298
0Q#
0R#
#299
1O#
#300
0O#
0P#
#301
b1000000100 P"
1P#
1Q#
1R#
#302
1<#
0Q#
0R#
#303
0<#
1?#
1O#
1T#
1V#
#304
1>#
0?#
0O#
0P#
0T#
0V#
#305
b1000000000 P"
0>#
1P#
1Q#
1R#
#306
0Q#
0R#
#307
1O#
#308
0O#
0P#
#309
b1000000100 P"
1P#
1Q#
1R#
#310
1<#
0Q#
0R#
#311
0<#
1?#
1O#
1T#
1V#
#312
1>#
0?#
0O#
0P#
0T#
0V#
#313
b1000000000 P"
0>#
1P#
1Q#
1R#
#314
0Q#
0R#
#315
1O#
#316
0O#
0P#
#317
b1000000100 P"
1P#
1Q#
1R#
#318
1<#
0Q#
0R#
#319
0<#
1?#
1O#
1T#
1V#
#320
1>#
0?#
0O#
0P#
0T#
0V#
#321
b1000000000 P"
0>#
1P#
1Q#
1R#
#322
0Q#
0R#
#323
1O#
#324
0O#
0P#
#325
b1000000100 P"
1P#
1Q#
1R#
#326
1<#
0Q#
0R#
#327
0<#
1?#
1O#
1T#
1V#
#328
1>#
0?#
0O#
0P#
0T#
0V#
#329
b1000000000 P"
0>#
1P#
1Q#
1R#
#330
0Q#
0R#
#331
1O#
#332
0O#
0P#
#333
b1000000100 P"
1P#
1Q#
1R#
#334
1<#
0Q#
0R#
#335
0<#
1?#
1O#
1T#
1V#
#336
1>#
0?#
0O#
0P#
0T#
0V#
#337
b1000000000 P"
0>#
1P#
1Q#
1R#
#338
0Q#
0R#
#339
1O#
#340
0O#
0P#
#341
b1000000100 P"
1P#
1Q#
1R#
#342
1<#
0Q#
0R#
#343
0<#
1?#
1O#
1T#
1V#
#344
1>#
0?#
0O#
0P#
0T#
0V#
#345
b1000000000 P"
0>#
1P#
1Q#
1R#
#346
0Q#
0R#
#347
1O#
#348
0O#
0P#
#349
b1000000100 P"
1P#
1Q#
1R#
#350
1<#
0Q#
0R#
#351
0<#
1?#
1O#
1T#
1V#
#352
1>#
0?#
0O#
0P#
0T#
0V#
#353
b1000000000 P"
0>#
1P#
1Q#
1R#
#354
0Q#
0R#
#355
1O#
#356
0O#
0P#
#357
b1000000100 P"
1P#
1Q#
1R#
#358
1<#
0Q#
0R#
#359
0<#
1?#
1O#
1T#
1V#
#360
1>#
0?#
0O#
0P#
0T#
0V#
#361
b1000000000 P"
0>#
1P#
1Q#
1R#
#362
0Q#
0R#
#363
1O#
#364
0O#
0P#
#365
b1000000100 P"
1P#
1Q#
1R#
#366
1<#
0Q#
0R#
#367
0<#
1?#
1O#
1T#
1V#
#368
1>#
0?#
0O#
0P#
0T#
0V#
#369
b1000000000 P"
0>#
1P#
1Q#
1R#
#370
0Q#
0R#
#371
1O#
#372
0O#
0P#
#373
b1000000100 P"
1P#
1Q#
1R#
#374
1<#
0Q#
0R#
#375
0<#
1?#
1O#
1T#
1V#
#376
1>#
0?#
0O#
0P#
0T#
0V#
#377
b1000000000 P"
0>#
1P#
1Q#
1R#
#378
0Q#
0R#
#379
1O#
#380
0O#
0P#
#381
b1000000100 P"
1P#
1Q#
1R#
#382
1<#
0Q#
0R#
#383
0<#
1?#
1O#
1T#
1V#
#384
1>#
0?#
0O#
0P#
0T#
0V#
#385
b1000000000 P"
0>#
1P#
1Q#
1R#
#386
0Q#
0R#
#387
1O#
#388
0O#
0P#
#389
b1000000100 P"
1P#
1Q#
1R#
#390
1<#
0Q#
0R#
#391
0<#
1?#
1O#
1T#
1V#
#392
1>#
0?#
0O#
0P#
0T#
0V#
#393
b1000000000 P"
0>#
1P#
1Q#
1R#
#394
0Q#
0R#
#395
1O#
#396
0O#
0P#
#397
b1000000100 P"
1P#
1Q#
1R#
#398
1<#
0Q#
0R#
#399
0<#
1?#
1O#
1T#
1V#
#400
19#
1>#
0?#
0O#
0P#
0T#
0V#
#401
b1000000000 P"
0>#
1P#
1Q#
1R#
#402
0Q#
0R#
#403
1O#
#404
0O#
0P#
#405
b1000000100 P"
1P#
1Q#
1R#
#406
1<#
0Q#
0R#
#407
0<#
1?#
1O#
1T#
1V#
#408
1>#
0?#
0O#
0P#
0T#
0V#
#409
b1000000000 P"
0>#
1P#
1Q#
1R#
#410
0Q#
0R#
#411
1O#
#412
0O#
0P#
#413
b1000000100 P"
1P#
1Q#
1R#
#414
1<#
0Q#
0R#
#415
0<#
1?#
1O#
1T#
1V#
#416
1>#
0?#
0O#
0P#
0T#
0V#
#417
b1000000000 P"
0>#
1P#
1Q#
1R#
#418
0Q#
0R#
#419
1O#
#420
0O#
0P#
#421
b1000000100 P"
1P#
1Q#
1R#
#422
1<#
0Q#
0R#
#423
0<#
1?#
1O#
1T#
1V#
#424
1>#
0?#
0O#
0P#
0T#
0V#
#425
b1000000000 P"
0>#
1P#
1Q#
1R#
#426
0Q#
0R#
#427
1O#
#428
0O#
0P#
#429
b1000000100 P"
1P#
1Q#
1R#
#430
1<#
0Q#
0R#
#431
0<#
1?#
1O#
1T#
1V#
#432
09#
1>#
0?#
0O#
0P#
0T#
0V#
#433
b1000000000 P"
0>#
1P#
1Q#
1R#
#434
0Q#
0R#
#435
1O#
#436
0O#
0P#
#437
b1000000100 P"
1P#
1Q#
1R#
#438
1<#
0Q#
0R#
#439
0<#
1?#
1O#
1T#
1V#
#440
1>#
0?#
0O#
0P#
0T#
0V#
#441
b1000000000 P"
0>#
1P#
1Q#
1R#
#442
0Q#
0R#
#443
1O#
#444
0O#
0P#
#445
b1000000100 P"
1P#
1Q#
1R#
#446
1<#
0Q#
0R#
#447
0<#
1?#
1O#
1T#
1V#
#448
1>#
0?#
0O#
0P#
0T#
0V#
#449
b1000000000 P"
0>#
1P#
1Q#
1R#
#450
0Q#
0R#
#451
1O#
#452
0O#
0P#
#453
b1000000100 P"
1P#
1Q#
1R#
#454
1<#
0Q#
0R#
#455
0<#
1?#
1O#
1T#
1V#
#456
1>#
0?#
0O#
0P#
0T#
0V#
#457
b1000000000 P"
0>#
1P#
1Q#
1R#
#458
0Q#
0R#
#459
1O#
#460
0O#
0P#
#461
b1000000100 P"
1P#
1Q#
1R#
#462
1<#
0Q#
0R#
#463
0<#
1?#
1O#
1T#
1V#
#464
1>#
0?#
0O#
0P#
0T#
0V#
#465
b1000000000 P"
0>#
1P#
1Q#
1R#
#466
0Q#
0R#
#467
1O#
#468
0O#
0P#
#469
b1000000100 P"
1P#
1Q#
1R#
#470
1<#
0Q#
0R#
#471
0<#
1?#
1O#
1T#
1V#
#472
1>#
0?#
0O#
0P#
0T#
0V#
#473
b1000000000 P"
0>#
1P#
1Q#
1R#
#474
0Q#
0R#
#475
1O#
#476
0O#
0P#
#477
b1000000100 P"
1P#
1Q#
1R#
#478
1<#
0Q#
0R#
#479
0<#
1?#
1O#
1T#
1V#
#480
1>#
0?#
0O#
0P#
0T#
0V#
#481
b1000000000 P"
0>#
1P#
1Q#
1R#
#482
0Q#
0R#
#483
1O#
#484
0O#
0P#
#485
b1000000100 P"
1P#
1Q#
1R#
#486
1<#
0Q#
0R#
#487
0<#
1?#
1O#
1T#
1V#
#488
1>#
0?#
0O#
0P#
0T#
0V#
#489
b1000000000 P"
0>#
1P#
1Q#
1R#
#490
0Q#
0R#
#491
1O#
#492
0O#
0P#
#493
b1000000100 P"
1P#
1Q#
1R#
#494
1<#
0Q#
0R#
#495
0<#
1?#
1O#
1T#
1V#
#496
1>#
0?#
0O#
0P#
0T#
0V#
#497
b1000000000 P"
0>#
1P#
1Q#
1R#
#498
0Q#
0R#
#499
1O#
#500
0O#
0P#
#501
b1000000100 P"
1P#
1Q#
1R#
#502
1<#
0Q#
0R#
#503
0<#
1?#
1O#
1T#
1V#
#504
1>#
0?#
0O#
0P#
0T#
0V#
#505
b1000000000 P"
0>#
1P#
1Q#
1R#
#506
0Q#
0R#
#507
1O#
#508
0O#
0P#
#509
b1000000100 P"
1P#
1Q#
1R#
#510
1<#
0Q#
0R#
#511
0<#
1?#
1O#
1T#
1V#
#512
1>#
0?#
0O#
0P#
0T#
0V#
#513
b1000000000 P"
0>#
1P#
1Q#
1R#
#514
0Q#
0R#
#515
1O#
#516
0O#
0P#
#517
b1000000100 P"
1P#
1Q#
1R#
#518
1<#
0Q#
0R#
#519
0<#
1?#
1O#
1T#
1V#
#520
1>#
0?#
0O#
0P#
0T#
0V#
#521
b1000000000 P"
0>#
1P#
1Q#
1R#
#522
0Q#
0R#
#523
1O#
#524
0O#
0P#
#525
b1000000100 P"
1P#
1Q#
1R#
#526
1<#
0Q#
0R#
#527
0<#
1?#
1O#
1T#
1V#
#528
1>#
0?#
0O#
0P#
0T#
0V#
#529
b1000000000 P"
0>#
1P#
1Q#
1R#
#530
0Q#
0R#
#531
1O#
#532
0O#
0P#
#533
b1000000100 P"
1P#
1Q#
1R#
#534
1<#
0Q#
0R#
#535
0<#
1?#
1O#
1T#
1V#
#536
1>#
0?#
0O#
0P#
0T#
0V#
#537
b1000000000 P"
0>#
1P#
1Q#
1R#
#538
0Q#
0R#
#539
1O#
#540
0O#
0P#
#541
b1000000100 P"
1P#
1Q#
1R#
#542
1<#
0Q#
0R#
#543
0<#
1?#
1O#
1T#
1V#
#544
1>#
0?#
0O#
0P#
0T#
0V#
#545
b1000000000 P"
0>#
1P#
1Q#
1R#
#546
0Q#
0R#
#547
1O#
#548
0O#
0P#
#549
b1000000100 P"
1P#
1Q#
1R#
#550
1<#
0Q#
0R#
#551
0<#
1?#
1O#
1T#
1V#
#552
1>#
0?#
0O#
0P#
0T#
0V#
#553
b1000000000 P"
0>#
1P#
1Q#
1R#
#554
0Q#
0R#
#555
1O#
#556
0O#
0P#
#557
b1000000100 P"
1P#
1Q#
1R#
#558
1<#
0Q#
0R#
#559
0<#
1?#
1O#
1T#
1V#
#560
1>#
0?#
0O#
0P#
0T#
0V#
#561
b1000000000 P"
0>#
1P#
1Q#
1R#
#562
0Q#
0R#
#563
1O#
#564
0O#
0P#
#565
b1000000100 P"
1P#
1Q#
1R#
#566
1<#
0Q#
0R#
#567
0<#
1?#
1O#
1T#
1V#
#568
1>#
0?#
0O#
0P#
0T#
0V#
#569
b1000000000 P"
0>#
1P#
1Q#
1R#
#570
0Q#
0R#
#571
1O#
#572
0O#
0P#
#573
b1000000100 P"
1P#
1Q#
1R#
#574
1<#
0Q#
0R#
#575
0<#
1?#
1O#
1T#
1V#
#576
1>#
0?#
0O#
0P#
0T#
0V#
#577
b1000000000 P"
0>#
1P#
1Q#
1R#
#578
0Q#
0R#
#579
1O#
#580
0O#
0P#
#581
b1000000100 P"
1P#
1Q#
1R#
#582
1<#
0Q#
0R#
#583
0<#
1?#
1O#
1T#
1V#
#584
1>#
0?#
0O#
0P#
0T#
0V#
#585
b1000000000 P"
0>#
1P#
1Q#
1R#
#586
0Q#
0R#
#587
1O#
#588
0O#
0P#
#589
b1000000100 P"
1P#
1Q#
1R#
#590
1<#
0Q#
0R#
#591
0<#
1?#
1O#
1T#
1V#
#592
1>#
0?#
0O#
0P#
0T#
0V#
#593
b1000000000 P"
0>#
1P#
1Q#
1R#
#594
0Q#
0R#
#595
1O#
#596
0O#
0P#
#597
b1000000100 P"
1P#
1Q#
1R#
#598
1<#
0Q#
0R#
#599
0<#
1?#
1O#
1T#
1V#
#600
1>#
0?#
0O#
0P#
0T#
0V#
#601
b1000000000 P"
0>#
1P#
1Q#
1R#
#602
0Q#
0R#
#603
1O#
#604
0O#
0P#
#605
b1000000100 P"
1P#
1Q#
1R#
#606
1<#
0Q#
0R#
#607
0<#
1?#
1O#
1T#
1V#
#608
1>#
0?#
0O#
0P#
0T#
0V#
#609
b1000000000 P"
0>#
1P#
1Q#
1R#
#610
0Q#
0R#
#611
1O#
#612
0O#
0P#
#613
b1000000100 P"
1P#
1Q#
1R#
#614
1<#
0Q#
0R#
#615
0<#
1?#
1O#
1T#
1V#
#616
1>#
0?#
0O#
0P#
0T#
0V#
#617
b1000000000 P"
0>#
1P#
1Q#
1R#
#618
0Q#
0R#
#619
1O#
#620
0O#
0P#
#621
b1000000100 P"
1P#
1Q#
1R#
#622
1<#
0Q#
0R#
#623
0<#
1?#
1O#
1T#
1V#
#624
1>#
0?#
0O#
0P#
0T#
0V#
#625
b1000000000 P"
0>#
1P#
1Q#
1R#
#626
0Q#
0R#
#627
1O#
#628
0O#
0P#
#629
b1000000100 P"
1P#
1Q#
1R#
#630
1<#
0Q#
0R#
#631
0<#
1?#
1O#
1T#
1V#
#632
1>#
0?#
0O#
0P#
0T#
0V#
#633
b1000000000 P"
0>#
1P#
1Q#
1R#
#634
0Q#
0R#
#635
1O#
#636
0O#
0P#
#637
b1000000100 P"
1P#
1Q#
1R#
#638
1<#
0Q#
0R#
#639
0<#
1?#
1O#
1T#
1V#
#640
1>#
0?#
0O#
0P#
0T#
0V#
#641
b1000000000 P"
0>#
1P#
1Q#
1R#
#642
0Q#
0R#
#643
1O#
#644
0O#
0P#
#645
b1000000100 P"
1P#
1Q#
1R#
#646
1<#
0Q#
0R#
#647
0<#
1?#
1O#
1T#
1V#
#648
1>#
0?#
0O#
0P#
0T#
0V#
#649
b1000000000 P"
0>#
1P#
1Q#
1R#
#650
0Q#
0R#
#651
1O#
#652
0O#
0P#
#653
b1000000100 P"
1P#
1Q#
1R#
#654
1<#
0Q#
0R#
#655
0<#
1?#
1O#
1T#
1V#
#656
1>#
0?#
0O#
0P#
0T#
0V#
#657
b1000000000 P"
0>#
1P#
1Q#
1R#
#658
0Q#
0R#
#659
1O#
#660
0O#
0P#
#661
b1000000100 P"
1P#
1Q#
1R#
#662
1<#
0Q#
0R#
#663
0<#
1?#
1O#
1T#
1V#
#664
1>#
0?#
0O#
0P#
0T#
0V#
#665
b1000000000 P"
0>#
1P#
1Q#
1R#
#666
0Q#
0R#
#667
1O#
#668
0O#
0P#
#669
b1000000100 P"
1P#
1Q#
1R#
#670
1<#
0Q#
0R#
#671
0<#
1?#
1O#
1T#
1V#
#672
1>#
0?#
0O#
0P#
0T#
0V#
#673
b1000000000 P"
0>#
1P#
1Q#
1R#
#674
0Q#
0R#
#675
1O#
#676
0O#
0P#
#677
b1000000100 P"
1P#
1Q#
1R#
#678
1<#
0Q#
0R#
#679
0<#
1?#
1O#
1T#
1V#
#680
1>#
0?#
0O#
0P#
0T#
0V#
#681
b1000000000 P"
0>#
1P#
1Q#
1R#
#682
0Q#
0R#
#683
1O#
#684
0O#
0P#
#685
b1000000100 P"
1P#
1Q#
1R#
#686
1<#
0Q#
0R#
#687
0<#
1?#
1O#
1T#
1V#
